%YAML 1.1
%TAG !u! tag:unity3d.com,2011:
--- !u!1045 &1
EditorBuildSettings:
  m_ObjectHideFlags: 0
  serializedVersion: 2
  m_Scenes:
  - enabled: 1
    path: Assets/Scenes/1.unity
    guid: 99c9720ab356a0642a771bea13969a05
  - enabled: 1
    path: Assets/Scenes/2.unity
    guid: 346c4cdee4983394a94cc9aab87158b2
  - enabled: 1
    path: Assets/Scenes/3.unity
    guid: da38d6082499bd04bae1605f3a803716
  - enabled: 1
    path: Assets/Scenes/MainMenu.unity
    guid: b63b2a0eef8879b43aa7f6928ceb5919
  - enabled: 1
    path: Assets/Scenes/Levels.unity
    guid: e9f22bc259d315f44bf7c81f314ea75d
  - enabled: 1
    path: Assets/Scenes/Shop.unity
    guid: f28b35f9d3bd09e44ace93b6da681a9d
  m_configObjects: {}
